"0x14723a09acff6d2a60dcdf7aa4aff308fddc160c", "0x4b0897b0513fdc7c541b6d9d7e929c4e5364d2db", 1, 2, 1508070351

"0x14723a09acff6d2a60dcdf7aa4aff308fddc160c", "5000000000000000000", 1, 2

"0x51a195ce752e32689eedec0778e24cc0d6bb207aa3a0c9a4d9865d3a09754c4e"